{
  "project_info": {
    "project_number": "5893950959",
    "firebase_url": "https://calendar-international.firebaseio.com",
    "project_id": "calendar-international",
    "storage_bucket": "calendar-international.appspot.com"
  },
  "client": [
    {
      "client_info": {
        "mobilesdk_app_id": "1:5893950959:android:672fff7e22215dc0673a1a",
        "android_client_info": {
          "package_name": "com.pmberjaya.calendarnasional"
        }
      },
      "oauth_client": [
        {
          "client_id": "5893950959-0t02jib53kg1vrd0s8i48ekp6utmtn89.apps.googleusercontent.com",
          "client_type": 1,
          "android_info": {
            "package_name": "com.pmberjaya.calendarnasional",
            "certificate_hash": "64a542b6865bcb4d6200964ff854ac5ab8d11c55"
          }
        },
        {
          "client_id": "5893950959-iun1ard7h2shecvg8tbt3dv62msfch1h.apps.googleusercontent.com",
          "client_type": 3
        }
      ],
      "api_key": [
        {
          "current_key": "AIzaSyChKuqiZK74-WOn0YaNF_BY6hTOJezAvrs"
        }
      ],
      "services": {
        "appinvite_service": {
          "other_platform_oauth_client": [
            {
              "client_id": "5893950959-iun1ard7h2shecvg8tbt3dv62msfch1h.apps.googleusercontent.com",
              "client_type": 3
            }
          ]
        }
      }
    }
  ],
  "configuration_version": "1"
}